*****START 5x5*****
Results for p1=0.6,p2=0.2,p3=0.1
Iterations 37
World
-------------------------------------------------------------
|   100     |    -1     |    -1     |    -1     |   -50     |
-------------------------------------------------------------
|    -1     |   -20     |    -5     |    -1     |    -1     |
-------------------------------------------------------------
|    -1     |   -10     |    -1     |   -10     |    -1     |
-------------------------------------------------------------
|    -1     |    -1     |    -5     |   -20     |    -1     |
-------------------------------------------------------------
|   -50     |    -1     |    -1     |    -1     |   100     |
-------------------------------------------------------------
Utilities
-------------------------------------------------------------
|'100.0000' |'78.1447'  |'62.1213'  |'49.9416'  |'-50.0000' |
-------------------------------------------------------------
|'74.2997'  |'43.1517'  |'44.4783'  |'41.9506'  |'44.8583'  |
-------------------------------------------------------------
|'55.7426'  |'35.8082'  |'36.0551'  |'35.8082'  |'55.7426'  |
-------------------------------------------------------------
|'44.8583'  |'41.9506'  |'44.4783'  |'43.1517'  |'74.2997'  |
-------------------------------------------------------------
|'-50.0000' |'49.9416'  |'62.1213'  |'78.1447'  |'100.0000' |
-------------------------------------------------------------
Policy
-------------------------------------------------------------
|   '.'     |   '<'     |   '<'     |   '<'     |   '.'     |
-------------------------------------------------------------
|   '^'     |   '<'     |   '^'     |   '^'     |   'v'     |
-------------------------------------------------------------
|   '^'     |   '<'     |   '^'     |   '>'     |   'v'     |
-------------------------------------------------------------
|   '^'     |   'v'     |   'v'     |   '>'     |   'v'     |
-------------------------------------------------------------
|   '.'     |   '>'     |   '>'     |   '>'     |   '.'     |
-------------------------------------------------------------

*****END 5x5*******


Results for p1=0.6,p2=0.2,p3=0.2
*****START 5x5*****
Iterations 35
World
-------------------------------------------------------------
|   100     |    -1     |    -1     |    -1     |   -50     |
-------------------------------------------------------------
|    -1     |   -20     |    -5     |    -1     |    -1     |
-------------------------------------------------------------
|    -1     |   -10     |    -1     |   -10     |    -1     |
-------------------------------------------------------------
|    -1     |    -1     |    -5     |   -20     |    -1     |
-------------------------------------------------------------
|   -50     |    -1     |    -1     |    -1     |   100     |
-------------------------------------------------------------
Utilities
-------------------------------------------------------------
|'100.0000' |'88.7080'  |'82.0445'  |'77.9399'  |'-50.0000' |
-------------------------------------------------------------
|'88.7080'  |'64.3640'  |'71.2522'  |'74.6219'  |'76.8685'  |
-------------------------------------------------------------
|'80.5979'  |'65.3929'  |'67.2174'  |'65.3929'  |'80.5979'  |
-------------------------------------------------------------
|'76.8685'  |'74.6219'  |'71.2522'  |'64.3640'  |'88.7080'  |
-------------------------------------------------------------
|'-50.0000' |'77.9399'  |'82.0445'  |'88.7080'  |'100.0000' |
-------------------------------------------------------------
Policy
-------------------------------------------------------------
|   '.'     |   '<'     |   '<'     |   '<'     |   '.'     |
-------------------------------------------------------------
|   '^'     |   '^'     |   '^'     |   '^'     |   'v'     |
-------------------------------------------------------------
|   '^'     |   '<'     |   '^'     |   '>'     |   'v'     |
-------------------------------------------------------------
|   '^'     |   'v'     |   'v'     |   'v'     |   'v'     |
-------------------------------------------------------------
|   '.'     |   '>'     |   '>'     |   '>'     |   '.'     |
-------------------------------------------------------------

*****END 5x5*******

